.orange[] Conversations in time:
…
* Now we should look forward to 2032 Brisbane Olympics and work on forecasting the number of visits to Brisbane in 2032 using Sydney's data.
* information are embedded into temporal and structural context.
* Given such rich data, how should we start exploring time series?

---

## Domestic trips in Australia 🇦🇺

```r
*library(tsibbletalk)
tourism_monthly
```

```
*#> # A tsibble: 80,696 x 5 [1M]
*#> # Key:       State, Region, Purpose [308]
#>      Month State Region   Purpose  Trips
#>      <mth> <chr> <chr>    <chr>    <dbl>
#> 1 1998 Mar ACT   Canberra Business 111. 
#> 2 1998 Apr ACT   Canberra Business  93.1
#> 3 1998 May ACT   Canberra Business  78.1
#> 4 1998 Jun ACT   Canberra Business  44.3
#> 5 1998 Jul ACT   Canberra Business 129. 
#> 6 1998 Aug ACT   Canberra Business  71.3
#> # … with 80,690 more rows
```
…
* a tsibble is a data frame behind the scene, we can ggplot it.
* Overplotting, not particular useful
* upward trends for business, and strong seasonal effects for holidays

---

## Viz 📈 📉 on a feature space

```r
library(feasts)
tourism_monthly %>% features(Trips, feat_stl)
```

```
#> # A tibble: 308 × 12
#>   State           Region Purpose trend_strength seasonal_streng…
#>   <chr>           <chr>  <chr>            <dbl>            <dbl>
#> 1 ACT             Canbe… Busine…          0.316            0.332
#> 2 ACT             Canbe… Holiday          0.220            0.542
#> 3 ACT             Canbe… Other …          0.212            0.215
#> 4 ACT             Canbe… Visiti…          0.262            0.429
#> 5 New South Wales Blue … Busine…          0.185            0.247
#> 6 New South Wales Blue … Holiday          0.426            0.471
#> # … with 302 more rows, and 7 more variables:
#> #   seasonal_peak_year <dbl>, seasonal_trough_year <dbl>,
#> #   spikiness <dbl>, linearity <dbl>, curvature <dbl>,
#> #   stl_e_acf1 <dbl>, stl_e_acf10 <dbl>
```
…
## Let tsibble talk

---

## Syntax sugar: nesting and crossing

```r
tourism_shared <- tourism_monthly %>%
* as_shared_tsibble(spec = (State / Region) * Purpose)
tourism_shared
```

```
#> # A tsibble: 80,696 x 5 [1M]
#> # Key:       State, Region, Purpose [308]
#>      Month State Region   Purpose  Trips
#>      <mth> <chr> <chr>    <chr>    <dbl>
#> 1 1998 Mar ACT   Canberra Business 111. 
#> 2 1998 Apr ACT   Canberra Business  93.1
#> 3 1998 May ACT   Canberra Business  78.1
#> 4 1998 Jun ACT   Canberra Business  44.3
#> 5 1998 Jul ACT   Canberra Business 129. 
#> 6 1998 Aug ACT   Canberra Business  71.3
#> # … with 80,690 more rows
```
…
