A new tidy data structure to support exploration and modeling of temporal data
…
It tries to follow closely to the spirit of the tidyverse, and those familiar with tidyverse will have less cognitive loads to learning the new semantics.

It extends the existing tidyverse vocabulary to the time domain, and introduces some new verbs for making wrangling easier and more intuitive.

---

```r
carrier_delay <- flights_ts %>% 
  group_by(carrier) %>% 
  index_by(week = ~ yearweek(.)) %>% # week = yearweek(sched_dep_datetime)
  summarise_at(vars(contains("delay")), list(~ mean(.)))
```

```
*#> # A tsibble: 636 x 9 [1W]
*#> # Key:       carrier [12]
#>   carrier       week dep_delay arr_delay carrier_delay
#>   <chr>       <week>     <dbl>     <dbl>         <dbl>
#> 1 AA        2016 W52     13.5      8.91             NA
#> 2 AA        2017 W01     15.2     14.4              NA
#> 3 AA        2017 W02      8.06     3.64             NA
#> 4 AA        2017 W03      4.89     0.237            NA
#> 5 AA        2017 W04      2.53    -3.25             NA
#> 6 AA        2017 W05      1.90    -4.43             NA
#> # … with 630 more rows, and 4 more variables:
#> #   weather_delay <dbl>, nas_delay <dbl>,
#> #   security_delay <dbl>, late_aircraft_delay <dbl>
```
…
## Complain when tsibble cannot hold

.pull-left[

```r
carrier_delay %>% 
  select(carrier, dep_delay)
```

```
#> Selecting index: "week"
```

```
#> # A tsibble: 636 x 3 [1W]
#> # Key:       carrier [12]
#>   carrier dep_delay     week
#>   <chr>       <dbl>   <week>
#> 1 AA          13.5  2016 W52
#> 2 AA          15.2  2017 W01
#> 3 AA           8.06 2017 W02
#> 4 AA           4.89 2017 W03
#> 5 AA           2.53 2017 W04
#> 6 AA           1.90 2017 W05
#> # … with 630 more rows
```
…
