Calendar-based graphics for visualizing people’s daily schedules
…
.left-column[
## Easy to use
### - frame_calendar()
]
.right-column[

```r
sx_cal <- sx %>%
  frame_calendar(x = Time, y = Count, date = Date)
sx_cal
```

```
#> # A tibble: 8,760 x 6
#>   Date_Time           Date        Time Count .Time .Count
#> * <dttm>              <date>     <int> <int> <dbl>  <dbl>
#> 1 2017-01-01 00:00:00 2017-01-01     0  1335 0.258  0.986
#> 2 2017-01-01 01:00:00 2017-01-01     1   463 0.260  0.972
#> 3 2017-01-01 02:00:00 2017-01-01     2   219 0.261  0.968
#> 4 2017-01-01 03:00:00 2017-01-01     3   122 0.263  0.967
#> 5 2017-01-01 04:00:00 2017-01-01     4    21 0.264  0.965
#> 6 2017-01-01 05:00:00 2017-01-01     5    28 0.266  0.965
#> # ... with 8,754 more rows
```
…
