The 15th time series standard
…
```r
enquiry_year <- enquiry_full %>% 
  group_by(channel, category) %>% 
* index_by(year = year(date)) %>% 
* summarise(annual_volume = sum(volume))
enquiry_year
```

```
#> # A tsibble: 239 x 4 [1YEAR]
#> # Key:       category, channel [48]
#> # Groups:    channel [4]
#>   channel category                 year annual_volume
#>   <fct>   <fct>                   <dbl>         <int>
#> 1 Email   Animal Control           2014           962
#> 2 Email   Animal Control           2015          2849
#> 3 Email   Animal Control           2016          3159
#> 4 Email   Animal Control           2017          3416
#> 5 Email   Animal Control           2018           860
#> 6 Email   Built Structure Control  2014           336
#> # ... with 233 more rows
```
…
--

.pull-right[

```r
enquiry_sum <- enquiry_full %>%
  summarise(ttl_volume = sum(volume))
enquiry_sum
```

```
#> # A tsibble: 1,551 x 2 [1DAY]
#>   date       ttl_volume
#>   <date>          <int>
#> 1 2014-01-01        636
#> 2 2014-01-02       2171
#> 3 2014-01-03       1968
#> 4 2014-01-04        559
#> 5 2014-01-05        489
#> 6 2014-01-06       3320
#> # ... with 1,545 more rows
```
…
