Tidy data structures and visualisation to support exploration and modeling of temporal-context data
…
```r
flights %>% 
  as_tsibble(
    key = id(flight), 
    index = sched_dep_datetime, 
    regular = FALSE
  )
```

```
*#> # A tsibble: 11,076,746 x 27 [!]
*#> # Keys:      flight [24,647]
#>    flight sched_dep_datetime  dep_time sched_dep_time
#>    <chr>  <dttm>                 <int>          <int>
#>  1 AA1    2016-01-01 09:00:00      856            900
#>  2 AA1    2016-01-02 09:00:00      857            900
#>  3 AA1    2016-01-03 09:00:00      913            900
#>  4 AA1    2016-01-04 09:00:00      903            900
#>  5 AA1    2016-01-05 09:00:00      850            900
#>  6 AA1    2016-01-06 09:00:00      855            900
#> # ... with 11,076,740 more rows, and 23 more variables:
#> #   dep_delay <dbl>, arr_time <int>, sched_arr_time <int>,
#> #   arr_delay <dbl>, carrier <chr>, tailnum <chr>,
#> #   origin <chr>, dest <chr>, air_time <dbl>,
#> #   distance <dbl>, origin_city_name <chr>,
#> #   origin_state <chr>, origin_state_name <chr>,
#> #   dest_city_name <chr>, dest_state <chr>,
#> #   dest_state_name <chr>, taxi_out <dbl>, taxi_in <dbl>,
#> #   carrier_delay <dbl>, weather_delay <dbl>,
…
<!--
```
#> # A tsibble: 6,935 x 7 [1HOUR]
#>   sched_dep_datetime  qtl50 qtl80 qtl95  zero  hour date      
#>   <dttm>              <dbl> <dbl> <dbl> <dbl> <int> <date>    
#> 1 2017-01-01 05:00:00   -2.  3.00  29.1    0.     5 2017-01-01
#> 2 2017-01-01 06:00:00   -3.  2.80  39.7    0.     6 2017-01-01
#> 3 2017-01-01 07:00:00   -3.  5.00  51.0    0.     7 2017-01-01
#> 4 2017-01-01 08:00:00   -2.  5.00  46.0    0.     8 2017-01-01
#> 5 2017-01-01 09:00:00   -2.  8.00  57.6    0.     9 2017-01-01
#> 6 2017-01-01 10:00:00   -2. 10.0   75.4    0.    10 2017-01-01
#> # ... with 6,929 more rows
```
…
