Analysing sub-daily time series data
…
.left-column[
## Pedestrian counts 🚶‍♀️
### - sensors
### - the data
]
.right-column[

```r
pedestrian <- as_tibble(rwalkr::run_melb(year = 2016))
pedestrian
```

```
#> # A tibble: 377,712 x 5
#>                               Sensor  Date_Time       Date
#>                                <chr>     <dttm>     <date>
#>  1    Chinatown-Lt Bourke St (South) 2016-01-01 2016-01-01
#>  2                   Waterfront City 2016-01-01 2016-01-01
#>  3                   Lygon St (East) 2016-01-01 2016-01-01
#>  4                  Town Hall (West) 2016-01-01 2016-01-01
#>  5      Monash Rd-Swanston St (West) 2016-01-01 2016-01-01
#>  6             Collins Place (South) 2016-01-01 2016-01-01
#>  7     Spencer St-Collins St (North) 2016-01-01 2016-01-01
#>  8 Flinders Street Station Underpass 2016-01-01 2016-01-01
#>  9                    Birrarung Marr 2016-01-01 2016-01-01
#> 10     QV Market-Elizabeth St (West) 2016-01-01 2016-01-01
#> # ... with 377,702 more rows, and 2 more variables:
#> #   Time <int>, Count <int>
```
…
```r
flinders <- subdat %>% 
  filter(Sensor == "Flinders Street Station Underpass") %>% 
  mutate(
    Holiday = ifelse(Date %in% au_holiday(2016)$date, 
    TRUE, FALSE)
  )
flinders_cal <- flinders %>%
* frame_calendar(x = Time, y = Count, date = Date)
flinders_cal
```

```
#> # A tibble: 8,784 x 9
#>                               Sensor           Date_Time
#>  *                             <chr>              <dttm>
#>  1 Flinders Street Station Underpass 2016-01-01 00:00:00
#>  2 Flinders Street Station Underpass 2016-01-01 01:00:00
#>  3 Flinders Street Station Underpass 2016-01-01 02:00:00
#>  4 Flinders Street Station Underpass 2016-01-01 03:00:00
#>  5 Flinders Street Station Underpass 2016-01-01 04:00:00
#>  6 Flinders Street Station Underpass 2016-01-01 05:00:00
#>  7 Flinders Street Station Underpass 2016-01-01 06:00:00
#>  8 Flinders Street Station Underpass 2016-01-01 07:00:00
#>  9 Flinders Street Station Underpass 2016-01-01 08:00:00
#> 10 Flinders Street Station Underpass 2016-01-01 09:00:00
#> # ... with 8,774 more rows, and 7 more variables:
#> #   Time <int>, Count <int>, Day <ord>, Holiday <lgl>,
#> #   Date <date>, .Time <dbl>, .Count <dbl>
```
…
---

.left-column[
## tsibble
### - overview
### - coercion
]
.right-column[
### Start with a tibble/data.frame

```r
pedestrian
```
```
*#> # A tibble: 377,712 x 5
#>                               Sensor  Date_Time       Date
#>                                <chr>     <dttm>     <date>
#>  1    Chinatown-Lt Bourke St (South) 2016-01-01 2016-01-01
#>  2                   Waterfront City 2016-01-01 2016-01-01
#>  3                   Lygon St (East) 2016-01-01 2016-01-01
#>  4                  Town Hall (West) 2016-01-01 2016-01-01
#>  5      Monash Rd-Swanston St (West) 2016-01-01 2016-01-01
#>  6             Collins Place (South) 2016-01-01 2016-01-01
#>  7     Spencer St-Collins St (North) 2016-01-01 2016-01-01
#>  8 Flinders Street Station Underpass 2016-01-01 2016-01-01
#>  9                    Birrarung Marr 2016-01-01 2016-01-01
#> 10     QV Market-Elizabeth St (West) 2016-01-01 2016-01-01
#> # ... with 377,702 more rows, and 2 more variables:
#> #   Time <int>, Count <int>
```
…
```r
library(tsibble)
pedestrian %>% 
  as_tsibble(Sensor, index = Date_Time)
```

```
*#> # A tsibble: 377,712 x 5 [1HOUR]
*#> # Keys:      Sensor
#>  *                            Sensor  Date_Time       Date
#>                                <chr>     <dttm>     <date>
#>  1    Chinatown-Lt Bourke St (South) 2016-01-01 2016-01-01
#>  2                   Waterfront City 2016-01-01 2016-01-01
#>  3                   Lygon St (East) 2016-01-01 2016-01-01
#>  4                  Town Hall (West) 2016-01-01 2016-01-01
#>  5      Monash Rd-Swanston St (West) 2016-01-01 2016-01-01
#>  6             Collins Place (South) 2016-01-01 2016-01-01
#>  7     Spencer St-Collins St (North) 2016-01-01 2016-01-01
#>  8 Flinders Street Station Underpass 2016-01-01 2016-01-01
#>  9                    Birrarung Marr 2016-01-01 2016-01-01
#> 10     QV Market-Elizabeth St (West) 2016-01-01 2016-01-01
#> # ... with 377,702 more rows, and 2 more variables:
#> #   Time <int>, Count <int>
```
…
```r
ped_ts <- as_tsibble(pedestrian, Sensor, index = Date_Time)
ped_ts %>% 
  group_by(Sensor) %>% 
  tsummarise(
    YrMon = yearmth(Date_Time),
    MinC = min(Count, na.rm = TRUE),
    MaxC = max(Count, na.rm = TRUE)
  )
```

```
#> # A tsibble: 516 x 4 [1MONTH]
#> # Keys:      Sensor
#> # Groups:    Sensor
#>          Sensor    YrMon  MinC  MaxC
#>  *        <chr>    <mth> <dbl> <dbl>
#>  1 Alfred Place 2016 Jan     0  1067
#>  2 Alfred Place 2016 Feb     0  1099
#>  3 Alfred Place 2016 Mar     1  1161
#>  4 Alfred Place 2016 Apr     0  1107
#>  5 Alfred Place 2016 May     0  1099
#>  6 Alfred Place 2016 Jun     0  1101
#>  7 Alfred Place 2016 Jul     0  1174
#>  8 Alfred Place 2016 Aug     0  1075
#>  9 Alfred Place 2016 Sep     0  1071
#> 10 Alfred Place 2016 Oct     0  1057
#> # ... with 506 more rows
```
…
