Tidy data structure and calendar-based visualisation to support exploration of temporal-context data
…
```r
subdat_daily <- subdat_full %>% 
  group_by(Sensor) %>% 
  tsummarise(
    Date = as_date(Date_Time),
    DailyCount = sum(Count, na.rm = TRUE)
  )
subdat_daily
```

```
#> # A tsibble: 1,095 x 3 [1DAY]
#> # Keys:      Sensor [3]
#>    Sensor                          Date       DailyCount
#>    <chr>                           <date>          <int>
#>  1 Flinders St-Elizabeth St (East) 2017-01-01          0
#>  2 Flinders St-Elizabeth St (East) 2017-01-02          0
#>  3 Flinders St-Elizabeth St (East) 2017-01-03          0
#>  4 Flinders St-Elizabeth St (East) 2017-01-04          0
#>  5 Flinders St-Elizabeth St (East) 2017-01-05          0
#>  6 Flinders St-Elizabeth St (East) 2017-01-06          0
#>  7 Flinders St-Elizabeth St (East) 2017-01-07          0
#>  8 Flinders St-Elizabeth St (East) 2017-01-08          0
#>  9 Flinders St-Elizabeth St (East) 2017-01-09          0
#> 10 Flinders St-Elizabeth St (East) 2017-01-10          0
#> # ... with 1,085 more rows
```
…
.block[
.flowchart[
* `frame_calendar()` <br> re-structure into a calendar layout
]
]

```r
sx_cal <- pedestrian %>% 
  filter(Sensor == "Southern Cross Station") %>% 
* frame_calendar(x = Time, y = Count, date = Date)
```

```
#> # A tsibble: 8,760 x 6 [1HOUR]
#>    Date_Time            Time Count Date       .Time .Count
#>    <dttm>              <int> <int> <date>     <dbl>  <dbl>
#>  1 2017-01-01 00:00:00     0  1335 2017-01-01 0.258  0.986
#>  2 2017-01-01 01:00:00     1   463 2017-01-01 0.260  0.972
#>  3 2017-01-01 02:00:00     2   219 2017-01-01 0.261  0.968
#>  4 2017-01-01 03:00:00     3   122 2017-01-01 0.263  0.967
#>  5 2017-01-01 04:00:00     4    21 2017-01-01 0.264  0.965
#>  6 2017-01-01 05:00:00     5    28 2017-01-01 0.266  0.965
#>  7 2017-01-01 06:00:00     6    26 2017-01-01 0.268  0.965
#>  8 2017-01-01 07:00:00     7    35 2017-01-01 0.269  0.965
#>  9 2017-01-01 08:00:00     8    55 2017-01-01 0.271  0.966
#> 10 2017-01-01 09:00:00     9    82 2017-01-01 0.272  0.966
#> # ... with 8,750 more rows
```
…
