…
---

.left-column[
## Pedestrian counting system
### - sensors
### - the data
]
.right-column[
* Sourced from [Melbourne open data portal](http://www.pedestrian.melbourne.vic.gov.au)
* Access the pedestrian data through the [rwalkr](http://pkg.earo.me/rwalkr/) package
* Data over the year of 2017

```
#> # A tibble: 455,520 x 6
#>    Sensor        Date_Time           Date        Time Count
#>    <chr>         <dttm>              <date>     <int> <int>
#>  1 Alfred Place  2017-01-01 00:00:00 2017-01-01     0   222
#>  2 Australia on… 2017-01-01 00:00:00 2017-01-01     0  1358
#>  3 Birrarung Ma… 2017-01-01 00:00:00 2017-01-01     0  1099
#>  4 Bourke St-Ru… 2017-01-01 00:00:00 2017-01-01     0  1916
#>  5 Bourke Stree… 2017-01-01 00:00:00 2017-01-01     0   855
#>  6 Bourke Stree… 2017-01-01 00:00:00 2017-01-01     0   855
#>  7 Chinatown-Lt… 2017-01-01 00:00:00 2017-01-01     0   353
#>  8 Chinatown-Sw… 2017-01-01 00:00:00 2017-01-01     0   697
#>  9 City Square   2017-01-01 00:00:00 2017-01-01     0  5120
#> 10 Collins Plac… 2017-01-01 00:00:00 2017-01-01     0   444
#> # ... with 455,510 more rows, and 1 more variable:
#> #   Holiday <lgl>
```
…
```
#> # A tibble: 8,760 x 5
#>     Time Count Date       .Time .Count
#>  * <int> <int> <date>     <dbl>  <dbl>
#>  1     0  1335 2017-01-01 0.258  0.986
#>  2     1   463 2017-01-01 0.260  0.972
#>  3     2   219 2017-01-01 0.261  0.968
#>  4     3   122 2017-01-01 0.263  0.967
#>  5     4    21 2017-01-01 0.264  0.965
#>  6     5    28 2017-01-01 0.266  0.965
#>  7     6    26 2017-01-01 0.268  0.965
#>  8     7    35 2017-01-01 0.269  0.965
#>  9     8    55 2017-01-01 0.271  0.966
#> 10     9    82 2017-01-01 0.272  0.966
#> # ... with 8,750 more rows
```
…
