…
---

.left-column[
## Pedestrian counting system
### - sensors
### - the data
]
.right-column[
* Sourced from [Melbourne open data portal](http://www.pedestrian.melbourne.vic.gov.au)
* Access the pedestrian data through the [rwalkr](http://pkg.earo.me/rwalkr/) package
* Up-to-date data till 2017-12-09

```
#> # A tibble: 378,024 x 6
#>                            Sensor  Date_Time       Date
#>                             <chr>     <dttm>     <date>
#>  1                   Alfred Place 2017-01-01 2017-01-01
#>  2           Australia on Collins 2017-01-01 2017-01-01
#>  3                 Birrarung Marr 2017-01-01 2017-01-01
#>  4    Bourke St-Russell St (West) 2017-01-01 2017-01-01
#>  5     Bourke Street Mall (North) 2017-01-01 2017-01-01
#>  6     Bourke Street Mall (South) 2017-01-01 2017-01-01
#>  7 Chinatown-Lt Bourke St (South) 2017-01-01 2017-01-01
#>  8  Chinatown-Swanston St (North) 2017-01-01 2017-01-01
#>  9                    City Square 2017-01-01 2017-01-01
#> 10          Collins Place (North) 2017-01-01 2017-01-01
#> # ... with 378,014 more rows, and 3 more variables:
#> #   Time <int>, Count <int>, Holiday <lgl>
```
…
```
#> # A tibble: 8,232 x 5
#>     Time Count       Date     .Time    .Count
#>  * <int> <int>     <date>     <dbl>     <dbl>
#>  1     0  1335 2017-01-01 0.2583333 0.9860202
#>  2     1   463 2017-01-01 0.2598631 0.9721692
#>  3     2   219 2017-01-01 0.2613929 0.9682934
#>  4     3   122 2017-01-01 0.2629227 0.9667527
#>  5     4    21 2017-01-01 0.2644525 0.9651484
#>  6     5    28 2017-01-01 0.2659823 0.9652596
#>  7     6    26 2017-01-01 0.2675121 0.9652278
#>  8     7    35 2017-01-01 0.2690419 0.9653708
#>  9     8    55 2017-01-01 0.2705717 0.9656884
#> 10     9    82 2017-01-01 0.2721014 0.9661173
#> # ... with 8,222 more rows
```
…
